\relax 
\providecommand\hyper@newdestlabel[2]{}
\providecommand\BKM@entry[2]{}
\bibstyle{biblatex}
\bibdata{dokumentation-blx,ArbeitBib}
\citation{biblatex-control}
\catcode`"\active
\providecommand\HyperFirstAtBeginDocument{\AtBeginDocument}
\HyperFirstAtBeginDocument{\ifx\hyper@anchor\@undefined
\global\let\oldcontentsline\contentsline
\gdef\contentsline#1#2#3#4{\oldcontentsline{#1}{#2}{#3}}
\global\let\oldnewlabel\newlabel
\gdef\newlabel#1#2{\newlabelxx{#1}#2}
\gdef\newlabelxx#1#2#3#4#5#6{\oldnewlabel{#1}{{#2}{#3}}}
\AtEndDocument{\ifx\hyper@anchor\@undefined
\let\contentsline\oldcontentsline
\let\newlabel\oldnewlabel
\fi}
\fi}
\global\let\hyper@last\relax 
\gdef\HyperFirstAtBeginDocument#1{#1}
\providecommand\HyField@AuxAddToFields[1]{}
\providecommand\HyField@AuxAddToCoFields[2]{}
\gdef \LT@i {\LT@entry 
    {1}{194.09486pt}\LT@entry 
    {1}{194.09486pt}}
\@writefile{toc}{\vskip -1.2cm}
\@writefile{lof}{\vskip -1.2cm}
\@newglossary{main}{glg}{gls}{glo}
\reset@newl@bel
\@istfilename{dokumentation.ist}
\@glsorder{word}
\@writefile{toc}{\boolfalse {citerequest}\boolfalse {citetracker}\boolfalse {pagetracker}\boolfalse {backtracker}\relax }
\@writefile{lof}{\boolfalse {citerequest}\boolfalse {citetracker}\boolfalse {pagetracker}\boolfalse {backtracker}\relax }
\@writefile{lot}{\boolfalse {citerequest}\boolfalse {citetracker}\boolfalse {pagetracker}\boolfalse {backtracker}\relax }
\select@language{ngerman}
\@writefile{toc}{\defcounter {refsection}{0}\relax }\@writefile{toc}{\select@language{ngerman}}
\@writefile{lof}{\defcounter {refsection}{0}\relax }\@writefile{lof}{\select@language{ngerman}}
\@writefile{lot}{\defcounter {refsection}{0}\relax }\@writefile{lot}{\select@language{ngerman}}
\providecommand {\FN@pp@footnotehinttrue }{}
\providecommand {\FN@pp@footnote@aux }[2]{}
\FN@pp@footnotehinttrue 
\FN@pp@footnotehinttrue 
\FN@pp@footnotehinttrue 
\FN@pp@footnotehinttrue 
\@writefile{toc}{\defcounter {refsection}{0}\relax }\@writefile{toc}{\hfill Seite \par }
\BKM@entry{id=1,dest={73656374696F6E2A2E31},srcline={39}}{41626B5C333734727A756E67737665727A656963686E6973}
\FN@pp@footnotehinttrue 
\FN@pp@footnotehinttrue 
\newlabel{listofacs}{{}{II}{}{section*.1}{}}
\@writefile{toc}{\defcounter {refsection}{0}\relax }\@writefile{toc}{\contentsline {chapter}{Abk\IeC {\"u}rzungsverzeichnis}{II}{section*.1}}
\FN@pp@footnotehinttrue 
\newacro{ABAP}[\AC@hyperlink{ABAP}{ABAP}]{Advanced Business Application Programming}
\newacro{CRM}[\AC@hyperlink{CRM}{CRM}]{Customer-Relationship-Management}
\newacro{FPM}[\AC@hyperlink{FPM}{FPM}]{Floorplan Manager}
\newacro{iPPE}[\AC@hyperlink{iPPE}{iPPE}]{Integrierte Produkt- und Prozess-Engineering}
\newacro{MP}[\AC@hyperlink{MP}{MP}]{Metadata Provider}
\newacro{PSM}[\AC@hyperlink{PSM}{PSM}]{Produktstrukturmanagement}
\newacro{PLM}[\AC@hyperlink{PLM}{PLM}]{Product Lifecycle Management}
\newacro{PPM}[\AC@hyperlink{PPM}{PPM}]{Projektportfolio-Management}
\newacro{QM}[\AC@hyperlink{QM}{QM}]{Qualit\IeC {\"a}tsmanagement}
\newacro{SP}[\AC@hyperlink{SP}{SP}]{Service Provider}
\newacro{SPI}[\AC@hyperlink{SPI}{SPI}]{Service Provider Infrastructure}
\BKM@entry{id=2,dest={73656374696F6E2A2E33},srcline={47}}{416262696C64756E67737665727A656963686E6973}
\@writefile{lof}{\defcounter {refsection}{0}\relax }\@writefile{lof}{\hfill Seite \par }
\FN@pp@footnotehinttrue 
\FN@pp@footnotehinttrue 
\newlabel{listoffig}{{}{III}{Abkürzungsverzeichnis}{section*.3}{}}
\@writefile{toc}{\defcounter {refsection}{0}\relax }\@writefile{toc}{\contentsline {chapter}{Abbildungsverzeichnis}{III}{section*.3}}
\BKM@entry{id=3,dest={636861707465722E31},srcline={3}}{312045696E6C656974756E67}
\BKM@entry{id=4,dest={73656374696F6E2E312E31},srcline={5}}{312E31204D6F7469766174696F6E}
\BKM@entry{id=5,dest={73656374696F6E2E312E32},srcline={7}}{312E32205A69656C7365747A756E67}
\FN@pp@footnotehinttrue 
\@writefile{toc}{\defcounter {refsection}{0}\relax }\@writefile{toc}{\contentsline {chapter}{\numberline {1}Einleitung}{1}{chapter.1}}
\@writefile{lof}{\defcounter {refsection}{0}\relax }\@writefile{lof}{\addvspace {10\p@ }}
\@writefile{lot}{\defcounter {refsection}{0}\relax }\@writefile{lot}{\addvspace {10\p@ }}
\@writefile{lol}{\defcounter {refsection}{0}\relax }\@writefile{lol}{\addvspace {10\p@ }}
\@writefile{toc}{\defcounter {refsection}{0}\relax }\@writefile{toc}{\contentsline {section}{\numberline {1.1}Motivation}{1}{section.1.1}}
\@writefile{toc}{\defcounter {refsection}{0}\relax }\@writefile{toc}{\contentsline {section}{\numberline {1.2}Zielsetzung}{1}{section.1.2}}
\BKM@entry{id=6,dest={636861707465722E32},srcline={3}}{32204772756E646C6167656E}
\FN@pp@footnotehinttrue 
\@writefile{toc}{\defcounter {refsection}{0}\relax }\@writefile{toc}{\contentsline {chapter}{\numberline {2}Grundlagen}{2}{chapter.2}}
\@writefile{lof}{\defcounter {refsection}{0}\relax }\@writefile{lof}{\addvspace {10\p@ }}
\@writefile{lot}{\defcounter {refsection}{0}\relax }\@writefile{lot}{\addvspace {10\p@ }}
\@writefile{lol}{\defcounter {refsection}{0}\relax }\@writefile{lol}{\addvspace {10\p@ }}
\@writefile{lof}{\defcounter {refsection}{0}\relax }\@writefile{lof}{\contentsline {figure}{\numberline {2.1}{\ignorespaces Beispiel einer Produktstruktur}}{2}{figure.2.1}}
\newlabel{img:psbsp}{{2.1}{2}{Beispiel einer Produktstruktur}{figure.2.1}{}}
\BKM@entry{id=7,dest={636861707465722E33},srcline={3}}{33204465727A65697469676520496E746567726174696F6E207A7769736368656E2050534D20756E642050504D}
\FN@pp@footnotehinttrue 
\@writefile{toc}{\defcounter {refsection}{0}\relax }\@writefile{toc}{\contentsline {chapter}{\numberline {3}Derzeitige Integration zwischen PSM und PPM}{3}{chapter.3}}
\@writefile{lof}{\defcounter {refsection}{0}\relax }\@writefile{lof}{\addvspace {10\p@ }}
\@writefile{lot}{\defcounter {refsection}{0}\relax }\@writefile{lot}{\addvspace {10\p@ }}
\@writefile{lol}{\defcounter {refsection}{0}\relax }\@writefile{lol}{\addvspace {10\p@ }}
\BKM@entry{id=8,dest={636861707465722E34},srcline={4}}{34204B6F6E7A6570742064657220496E746567726174696F6E}
\FN@pp@footnotehinttrue 
\@writefile{toc}{\defcounter {refsection}{0}\relax }\@writefile{toc}{\contentsline {chapter}{\numberline {4}Konzept der Integration}{4}{chapter.4}}
\@writefile{lof}{\defcounter {refsection}{0}\relax }\@writefile{lof}{\addvspace {10\p@ }}
\@writefile{lot}{\defcounter {refsection}{0}\relax }\@writefile{lot}{\addvspace {10\p@ }}
\@writefile{lol}{\defcounter {refsection}{0}\relax }\@writefile{lol}{\addvspace {10\p@ }}
\BKM@entry{id=9,dest={636861707465722E35},srcline={3}}{3520496D706C656D656E74696572756E672064657220496E746567726174696F6E}
\FN@pp@footnotehinttrue 
\@writefile{toc}{\defcounter {refsection}{0}\relax }\@writefile{toc}{\contentsline {chapter}{\numberline {5}Implementierung der Integration}{5}{chapter.5}}
\@writefile{lof}{\defcounter {refsection}{0}\relax }\@writefile{lof}{\addvspace {10\p@ }}
\@writefile{lot}{\defcounter {refsection}{0}\relax }\@writefile{lot}{\addvspace {10\p@ }}
\@writefile{lol}{\defcounter {refsection}{0}\relax }\@writefile{lol}{\addvspace {10\p@ }}
\BKM@entry{id=10,dest={636861707465722E36},srcline={3}}{36205A7573616D6D656E66617373756E6720756E6420417573626C69636B}
\FN@pp@footnotehinttrue 
\@writefile{toc}{\defcounter {refsection}{0}\relax }\@writefile{toc}{\contentsline {chapter}{\numberline {6}Zusammenfassung und Ausblick}{6}{chapter.6}}
\@writefile{lof}{\defcounter {refsection}{0}\relax }\@writefile{lof}{\addvspace {10\p@ }}
\@writefile{lot}{\defcounter {refsection}{0}\relax }\@writefile{lot}{\addvspace {10\p@ }}
\@writefile{lol}{\defcounter {refsection}{0}\relax }\@writefile{lol}{\addvspace {10\p@ }}
\BKM@entry{id=11,dest={73656374696F6E2A2E34},srcline={89}}{4C69746572617475727665727A656963686E6973}
\FN@pp@footnotehinttrue 
\FN@pp@footnotehinttrue 
\newlabel{listoflit}{{6}{}{Zusammenfassung und Ausblick}{section*.4}{}}
\@writefile{toc}{\defcounter {refsection}{0}\relax }\@writefile{toc}{\contentsline {chapter}{Literaturverzeichnis}{}{section*.4}}
\FN@pp@footnotehinttrue 
\abx@aux@page{1}{1}
\abx@aux@page{2}{1}
\abx@aux@page{3}{1}
\abx@aux@page{4}{1}
\abx@aux@page{5}{1}
\abx@aux@page{6}{1}
\abx@aux@page{7}{2}
\abx@aux@page{8}{2}
\abx@aux@page{9}{2}
\abx@aux@page{10}{2}
\abx@aux@page{11}{2}
\abx@aux@page{12}{2}
\abx@aux@page{13}{2}
\abx@aux@page{14}{2}
\abx@aux@page{15}{2}
\abx@aux@page{16}{3}
\abx@aux@page{17}{3}
\abx@aux@page{18}{3}
\abx@aux@page{19}{3}
\BKM@entry{id=12,dest={636861707465722A2E35},srcline={100}}{416E68616E67}
\FN@pp@footnotehinttrue 
\FN@pp@footnotehinttrue 
\@writefile{toc}{\defcounter {refsection}{0}\relax }\@writefile{toc}{\contentsline {chapter}{Anhang}{i}{chapter*.5}}
\FN@pp@footnotehinttrue 
\@writefile{lof}{\defcounter {refsection}{0}\relax }\@writefile{lof}{\contentsline {figure}{\numberline {A.1}{\ignorespaces Wertehilfen zur einfachen Eingabe und Suche von Projektnummern}}{i}{figure.Alph0.1}}
\newlabel{img:wertehilfe}{{A.1}{i}{Wertehilfen zur einfachen Eingabe und Suche von Projektnummern}{figure.Alph0.1}{}}
\BKM@entry{id=13,dest={4974656D2E34},srcline={109}}{456872656E775C33363672746C696368652045726B6C5C33343472756E67}
\@writefile{toc}{\defcounter {refsection}{0}\relax }\@writefile{toc}{\contentsline {chapter}{Ehrenw\IeC {\"o}rtliche Erkl\IeC {\"a}rung}{}{Item.4}}
\FN@pp@footnotehinttrue 
