\vskip -1.2cm
\boolfalse {citerequest}\boolfalse {citetracker}\boolfalse {pagetracker}\boolfalse {backtracker}\relax 
\defcounter {refsection}{0}\relax 
\select@language {ngerman}
\defcounter {refsection}{0}\relax 
\hfill Seite \par 
\defcounter {refsection}{0}\relax 
\contentsline {chapter}{Abk\IeC {\"u}rzungsverzeichnis}{II}{section*.1}
\defcounter {refsection}{0}\relax 
\contentsline {chapter}{Abbildungsverzeichnis}{III}{section*.3}
\defcounter {refsection}{0}\relax 
\contentsline {chapter}{\numberline {1}Einleitung}{1}{chapter.1}
\defcounter {refsection}{0}\relax 
\contentsline {section}{\numberline {1.1}Motivation}{1}{section.1.1}
\defcounter {refsection}{0}\relax 
\contentsline {section}{\numberline {1.2}Zielsetzung}{1}{section.1.2}
\defcounter {refsection}{0}\relax 
\contentsline {chapter}{\numberline {2}Grundlagen}{2}{chapter.2}
\defcounter {refsection}{0}\relax 
\contentsline {chapter}{\numberline {3}Derzeitige Integration zwischen PSM und PPM}{3}{chapter.3}
\defcounter {refsection}{0}\relax 
\contentsline {chapter}{\numberline {4}Konzept der Integration}{4}{chapter.4}
\defcounter {refsection}{0}\relax 
\contentsline {chapter}{\numberline {5}Implementierung der Integration}{5}{chapter.5}
\defcounter {refsection}{0}\relax 
\contentsline {chapter}{\numberline {6}Zusammenfassung und Ausblick}{6}{chapter.6}
\defcounter {refsection}{0}\relax 
\contentsline {chapter}{Literaturverzeichnis}{}{section*.4}
\defcounter {refsection}{0}\relax 
\contentsline {chapter}{Anhang}{i}{chapter*.5}
\defcounter {refsection}{0}\relax 
\contentsline {chapter}{Ehrenw\IeC {\"o}rtliche Erkl\IeC {\"a}rung}{}{Item.4}
